%YAML 1.1
%TAG !u! tag:unity3d.com,2011:
--- !u!1001 &100100000
Prefab:
  m_ObjectHideFlags: 1
  serializedVersion: 2
  m_Modification:
    m_TransformParent: {fileID: 0}
    m_Modifications: []
    m_RemovedComponents: []
  m_ParentPrefab: {fileID: 0}
  m_RootGameObject: {fileID: 1534914877177020}
  m_IsPrefabParent: 1
--- !u!1 &1094468579706112
GameObject:
  m_ObjectHideFlags: 0
  m_PrefabParentObject: {fileID: 0}
  m_PrefabInternal: {fileID: 100100000}
  serializedVersion: 5
  m_Component:
  - component: {fileID: 4615172392787012}
  m_Layer: 0
  m_Name: Decriptions
  m_TagString: Untagged
  m_Icon: {fileID: 0}
  m_NavMeshLayer: 0
  m_StaticEditorFlags: 0
  m_IsActive: 1
--- !u!1 &1235086778730694
GameObject:
  m_ObjectHideFlags: 1
  m_PrefabParentObject: {fileID: 0}
  m_PrefabInternal: {fileID: 100100000}
  serializedVersion: 5
  m_Component:
  - component: {fileID: 4294808147332880}
  - component: {fileID: 33264859978077000}
  - component: {fileID: 23606133421376392}
  - component: {fileID: 114315597401370064}
  - component: {fileID: 114050414913043912}
  - component: {fileID: 64088765387461604}
  - component: {fileID: 114328933817056230}
  - component: {fileID: 82735306421981854}
  - component: {fileID: 114269033565587116}
  - component: {fileID: 114471866745647340}
  m_Layer: 0
  m_Name: MenuItemMaze
  m_TagString: Untagged
  m_Icon: {fileID: 0}
  m_NavMeshLayer: 0
  m_StaticEditorFlags: 0
  m_IsActive: 1
--- !u!1 &1507404734077482
GameObject:
  m_ObjectHideFlags: 0
  m_PrefabParentObject: {fileID: 0}
  m_PrefabInternal: {fileID: 100100000}
  serializedVersion: 5
  m_Component:
  - component: {fileID: 4835962164697228}
  m_Layer: 0
  m_Name: Items
  m_TagString: Untagged
  m_Icon: {fileID: 0}
  m_NavMeshLayer: 0
  m_StaticEditorFlags: 0
  m_IsActive: 1
--- !u!1 &1509919947319736
GameObject:
  m_ObjectHideFlags: 1
  m_PrefabParentObject: {fileID: 0}
  m_PrefabInternal: {fileID: 100100000}
  serializedVersion: 5
  m_Component:
  - component: {fileID: 4169959287003604}
  - component: {fileID: 33724585236521710}
  - component: {fileID: 23516735758233848}
  - component: {fileID: 114001902286518086}
  m_Layer: 0
  m_Name: MenuDescription360Shooter
  m_TagString: Untagged
  m_Icon: {fileID: 0}
  m_NavMeshLayer: 0
  m_StaticEditorFlags: 0
  m_IsActive: 1
--- !u!1 &1534914877177020
GameObject:
  m_ObjectHideFlags: 0
  m_PrefabParentObject: {fileID: 0}
  m_PrefabInternal: {fileID: 100100000}
  serializedVersion: 5
  m_Component:
  - component: {fileID: 4786649436779242}
  m_Layer: 0
  m_Name: Menu
  m_TagString: Untagged
  m_Icon: {fileID: 0}
  m_NavMeshLayer: 0
  m_StaticEditorFlags: 0
  m_IsActive: 1
--- !u!1 &1570323619662310
GameObject:
  m_ObjectHideFlags: 1
  m_PrefabParentObject: {fileID: 0}
  m_PrefabInternal: {fileID: 100100000}
  serializedVersion: 5
  m_Component:
  - component: {fileID: 4130269019980442}
  - component: {fileID: 33983170115878480}
  - component: {fileID: 23449379533798834}
  - component: {fileID: 114916633167737682}
  m_Layer: 0
  m_Name: MenuDescriptionMaze
  m_TagString: Untagged
  m_Icon: {fileID: 0}
  m_NavMeshLayer: 0
  m_StaticEditorFlags: 0
  m_IsActive: 1
--- !u!1 &1669484346730672
GameObject:
  m_ObjectHideFlags: 1
  m_PrefabParentObject: {fileID: 0}
  m_PrefabInternal: {fileID: 100100000}
  serializedVersion: 5
  m_Component:
  - component: {fileID: 4591213269028372}
  - component: {fileID: 33162872998797654}
  - component: {fileID: 23224478582632834}
  - component: {fileID: 114460781330866888}
  - component: {fileID: 114395030954941530}
  - component: {fileID: 64121326949352918}
  - component: {fileID: 114268001269318738}
  - component: {fileID: 82849527156809740}
  - component: {fileID: 114652354481748450}
  - component: {fileID: 114743697013859576}
  m_Layer: 0
  m_Name: MenuItemFlyer
  m_TagString: Untagged
  m_Icon: {fileID: 0}
  m_NavMeshLayer: 0
  m_StaticEditorFlags: 0
  m_IsActive: 1
--- !u!1 &1694122199457714
GameObject:
  m_ObjectHideFlags: 1
  m_PrefabParentObject: {fileID: 0}
  m_PrefabInternal: {fileID: 100100000}
  serializedVersion: 5
  m_Component:
  - component: {fileID: 4757824665224806}
  - component: {fileID: 33277861011656356}
  - component: {fileID: 23531389436570290}
  - component: {fileID: 114847988582809614}
  - component: {fileID: 114134277314070928}
  - component: {fileID: 64338075454868380}
  - component: {fileID: 114542468680191272}
  - component: {fileID: 82011938361195008}
  - component: {fileID: 95187233261392952}
  - component: {fileID: 114370009623452146}
  - component: {fileID: 114783752679363942}
  m_Layer: 0
  m_Name: MenuItem360Shooter
  m_TagString: Untagged
  m_Icon: {fileID: 0}
  m_NavMeshLayer: 0
  m_StaticEditorFlags: 0
  m_IsActive: 1
--- !u!1 &1736248860445468
GameObject:
  m_ObjectHideFlags: 1
  m_PrefabParentObject: {fileID: 0}
  m_PrefabInternal: {fileID: 100100000}
  serializedVersion: 5
  m_Component:
  - component: {fileID: 4872585206375792}
  - component: {fileID: 33736404752090522}
  - component: {fileID: 23657325984084762}
  - component: {fileID: 114128466457054266}
  m_Layer: 0
  m_Name: MenuDescription180Shooter
  m_TagString: Untagged
  m_Icon: {fileID: 0}
  m_NavMeshLayer: 0
  m_StaticEditorFlags: 0
  m_IsActive: 1
--- !u!1 &1880779936809046
GameObject:
  m_ObjectHideFlags: 1
  m_PrefabParentObject: {fileID: 0}
  m_PrefabInternal: {fileID: 100100000}
  serializedVersion: 5
  m_Component:
  - component: {fileID: 4577806935100480}
  - component: {fileID: 33647458852110776}
  - component: {fileID: 23468272174370114}
  - component: {fileID: 114101875127382244}
  - component: {fileID: 114856542112950072}
  - component: {fileID: 64700570766401672}
  - component: {fileID: 114918220517161140}
  - component: {fileID: 82294788354870952}
  - component: {fileID: 95400299270808182}
  - component: {fileID: 114556921582188110}
  - component: {fileID: 114879085630848490}
  m_Layer: 0
  m_Name: MenuItem180Shooter
  m_TagString: Untagged
  m_Icon: {fileID: 0}
  m_NavMeshLayer: 0
  m_StaticEditorFlags: 0
  m_IsActive: 1
--- !u!1 &1976722799704826
GameObject:
  m_ObjectHideFlags: 1
  m_PrefabParentObject: {fileID: 0}
  m_PrefabInternal: {fileID: 100100000}
  serializedVersion: 5
  m_Component:
  - component: {fileID: 4657008853332496}
  - component: {fileID: 33819073337285840}
  - component: {fileID: 23040665874967922}
  - component: {fileID: 114117131190408714}
  m_Layer: 0
  m_Name: MenuDescriptionFlyer
  m_TagString: Untagged
  m_Icon: {fileID: 0}
  m_NavMeshLayer: 0
  m_StaticEditorFlags: 0
  m_IsActive: 1
--- !u!4 &4130269019980442
Transform:
  m_ObjectHideFlags: 1
  m_PrefabParentObject: {fileID: 0}
  m_PrefabInternal: {fileID: 100100000}
  m_GameObject: {fileID: 1570323619662310}
  m_LocalRotation: {x: 0, y: 0.2588187, z: 0, w: -0.96592593}
  m_LocalPosition: {x: 0, y: 0, z: 0}
  m_LocalScale: {x: 1, y: 1, z: 1}
  m_Children: []
  m_Father: {fileID: 4615172392787012}
  m_RootOrder: 1
  m_LocalEulerAnglesHint: {x: 0, y: 0, z: 0}
--- !u!4 &4169959287003604
Transform:
  m_ObjectHideFlags: 1
  m_PrefabParentObject: {fileID: 0}
  m_PrefabInternal: {fileID: 100100000}
  m_GameObject: {fileID: 1509919947319736}
  m_LocalRotation: {x: 0, y: 0.7071068, z: 0, w: 0.7071067}
  m_LocalPosition: {x: 0, y: 0, z: 0}
  m_LocalScale: {x: 1, y: 1, z: 1}
  m_Children: []
  m_Father: {fileID: 4615172392787012}
  m_RootOrder: 3
  m_LocalEulerAnglesHint: {x: 0, y: 0, z: 0}
--- !u!4 &4294808147332880
Transform:
  m_ObjectHideFlags: 1
  m_PrefabParentObject: {fileID: 0}
  m_PrefabInternal: {fileID: 100100000}
  m_GameObject: {fileID: 1235086778730694}
  m_LocalRotation: {x: 0, y: -0.25881907, z: 0, w: 0.9659258}
  m_LocalPosition: {x: 0, y: 0, z: 0}
  m_LocalScale: {x: 1, y: 1, z: 1}
  m_Children: []
  m_Father: {fileID: 4835962164697228}
  m_RootOrder: 1
  m_LocalEulerAnglesHint: {x: 0, y: 0, z: 0}
--- !u!4 &4577806935100480
Transform:
  m_ObjectHideFlags: 1
  m_PrefabParentObject: {fileID: 0}
  m_PrefabInternal: {fileID: 100100000}
  m_GameObject: {fileID: 1880779936809046}
  m_LocalRotation: {x: 0, y: 0.25881907, z: 0, w: 0.9659258}
  m_LocalPosition: {x: 0, y: 0, z: 0}
  m_LocalScale: {x: 1, y: 1, z: 1}
  m_Children: []
  m_Father: {fileID: 4835962164697228}
  m_RootOrder: 2
  m_LocalEulerAnglesHint: {x: 0, y: 0, z: 0}
--- !u!4 &4591213269028372
Transform:
  m_ObjectHideFlags: 1
  m_PrefabParentObject: {fileID: 0}
  m_PrefabInternal: {fileID: 100100000}
  m_GameObject: {fileID: 1669484346730672}
  m_LocalRotation: {x: 0, y: -0.7071068, z: 0, w: 0.7071067}
  m_LocalPosition: {x: 0, y: 0, z: 0}
  m_LocalScale: {x: 1, y: 1, z: 1}
  m_Children: []
  m_Father: {fileID: 4835962164697228}
  m_RootOrder: 0
  m_LocalEulerAnglesHint: {x: 0, y: 0, z: 0}
--- !u!4 &4615172392787012
Transform:
  m_ObjectHideFlags: 1
  m_PrefabParentObject: {fileID: 0}
  m_PrefabInternal: {fileID: 100100000}
  m_GameObject: {fileID: 1094468579706112}
  m_LocalRotation: {x: 0, y: 0, z: 0, w: 1}
  m_LocalPosition: {x: 0, y: 0, z: 0}
  m_LocalScale: {x: 1, y: 1, z: 1}
  m_Children:
  - {fileID: 4657008853332496}
  - {fileID: 4130269019980442}
  - {fileID: 4872585206375792}
  - {fileID: 4169959287003604}
  m_Father: {fileID: 4786649436779242}
  m_RootOrder: 1
  m_LocalEulerAnglesHint: {x: 0, y: 0, z: 0}
--- !u!4 &4657008853332496
Transform:
  m_ObjectHideFlags: 1
  m_PrefabParentObject: {fileID: 0}
  m_PrefabInternal: {fileID: 100100000}
  m_GameObject: {fileID: 1976722799704826}
  m_LocalRotation: {x: 0, y: 0.7071066, z: 0, w: -0.70710695}
  m_LocalPosition: {x: 0, y: 0, z: 0}
  m_LocalScale: {x: 1, y: 1, z: 1}
  m_Children: []
  m_Father: {fileID: 4615172392787012}
  m_RootOrder: 0
  m_LocalEulerAnglesHint: {x: 0, y: 0, z: 0}
--- !u!4 &4757824665224806
Transform:
  m_ObjectHideFlags: 1
  m_PrefabParentObject: {fileID: 0}
  m_PrefabInternal: {fileID: 100100000}
  m_GameObject: {fileID: 1694122199457714}
  m_LocalRotation: {x: 0, y: 0.7071068, z: 0, w: 0.7071067}
  m_LocalPosition: {x: 0, y: 0, z: 0}
  m_LocalScale: {x: 1, y: 1, z: 1}
  m_Children: []
  m_Father: {fileID: 4835962164697228}
  m_RootOrder: 3
  m_LocalEulerAnglesHint: {x: 0, y: 0, z: 0}
--- !u!4 &4786649436779242
Transform:
  m_ObjectHideFlags: 1
  m_PrefabParentObject: {fileID: 0}
  m_PrefabInternal: {fileID: 100100000}
  m_GameObject: {fileID: 1534914877177020}
  m_LocalRotation: {x: 0, y: 0, z: 0, w: 1}
  m_LocalPosition: {x: 0, y: 0, z: 0}
  m_LocalScale: {x: 1, y: 1, z: 1}
  m_Children:
  - {fileID: 4835962164697228}
  - {fileID: 4615172392787012}
  m_Father: {fileID: 0}
  m_RootOrder: 0
  m_LocalEulerAnglesHint: {x: 0, y: 0, z: 0}
--- !u!4 &4835962164697228
Transform:
  m_ObjectHideFlags: 1
  m_PrefabParentObject: {fileID: 0}
  m_PrefabInternal: {fileID: 100100000}
  m_GameObject: {fileID: 1507404734077482}
  m_LocalRotation: {x: 0, y: 0, z: 0, w: 1}
  m_LocalPosition: {x: 0, y: 0, z: 0}
  m_LocalScale: {x: 1, y: 1, z: 1}
  m_Children:
  - {fileID: 4591213269028372}
  - {fileID: 4294808147332880}
  - {fileID: 4577806935100480}
  - {fileID: 4757824665224806}
  m_Father: {fileID: 4786649436779242}
  m_RootOrder: 0
  m_LocalEulerAnglesHint: {x: 0, y: 0, z: 0}
--- !u!4 &4872585206375792
Transform:
  m_ObjectHideFlags: 1
  m_PrefabParentObject: {fileID: 0}
  m_PrefabInternal: {fileID: 100100000}
  m_GameObject: {fileID: 1736248860445468}
  m_LocalRotation: {x: 0, y: 0.25881907, z: 0, w: 0.9659258}
  m_LocalPosition: {x: 0, y: 0, z: 0}
  m_LocalScale: {x: 1, y: 1, z: 1}
  m_Children: []
  m_Father: {fileID: 4615172392787012}
  m_RootOrder: 2
  m_LocalEulerAnglesHint: {x: 0, y: 0, z: 0}
--- !u!23 &23040665874967922
MeshRenderer:
  m_ObjectHideFlags: 1
  m_PrefabParentObject: {fileID: 0}
  m_PrefabInternal: {fileID: 100100000}
  m_GameObject: {fileID: 1976722799704826}
  m_Enabled: 1
  m_CastShadows: 0
  m_ReceiveShadows: 0
  m_DynamicOccludee: 1
  m_MotionVectors: 1
  m_LightProbeUsage: 0
  m_ReflectionProbeUsage: 0
  m_Materials:
  - {fileID: 2100000, guid: b4f44f3804a902b4aa1322e6f9013b34, type: 2}
  m_StaticBatchInfo:
    firstSubMesh: 0
    subMeshCount: 0
  m_StaticBatchRoot: {fileID: 0}
  m_ProbeAnchor: {fileID: 0}
  m_LightProbeVolumeOverride: {fileID: 0}
  m_ScaleInLightmap: 1
  m_PreserveUVs: 0
  m_IgnoreNormalsForChartDetection: 0
  m_ImportantGI: 0
  m_StitchLightmapSeams: 0
  m_SelectedEditorRenderState: 3
  m_MinimumChartSize: 4
  m_AutoUVMaxDistance: 0.5
  m_AutoUVMaxAngle: 89
  m_LightmapParameters: {fileID: 0}
  m_SortingLayerID: 0
  m_SortingLayer: 0
  m_SortingOrder: 0
--- !u!23 &23224478582632834
MeshRenderer:
  m_ObjectHideFlags: 1
  m_PrefabParentObject: {fileID: 0}
  m_PrefabInternal: {fileID: 100100000}
  m_GameObject: {fileID: 1669484346730672}
  m_Enabled: 1
  m_CastShadows: 0
  m_ReceiveShadows: 0
  m_DynamicOccludee: 1
  m_MotionVectors: 1
  m_LightProbeUsage: 0
  m_ReflectionProbeUsage: 0
  m_Materials:
  - {fileID: 2100000, guid: 6044e677c267b5448b0ea00f1c4ea590, type: 2}
  m_StaticBatchInfo:
    firstSubMesh: 0
    subMeshCount: 0
  m_StaticBatchRoot: {fileID: 0}
  m_ProbeAnchor: {fileID: 0}
  m_LightProbeVolumeOverride: {fileID: 0}
  m_ScaleInLightmap: 1
  m_PreserveUVs: 0
  m_IgnoreNormalsForChartDetection: 0
  m_ImportantGI: 0
  m_StitchLightmapSeams: 0
  m_SelectedEditorRenderState: 3
  m_MinimumChartSize: 4
  m_AutoUVMaxDistance: 0.5
  m_AutoUVMaxAngle: 89
  m_LightmapParameters: {fileID: 0}
  m_SortingLayerID: 0
  m_SortingLayer: 0
  m_SortingOrder: 0
--- !u!23 &23449379533798834
MeshRenderer:
  m_ObjectHideFlags: 1
  m_PrefabParentObject: {fileID: 0}
  m_PrefabInternal: {fileID: 100100000}
  m_GameObject: {fileID: 1570323619662310}
  m_Enabled: 1
  m_CastShadows: 0
  m_ReceiveShadows: 0
  m_DynamicOccludee: 1
  m_MotionVectors: 1
  m_LightProbeUsage: 0
  m_ReflectionProbeUsage: 0
  m_Materials:
  - {fileID: 2100000, guid: b4f44f3804a902b4aa1322e6f9013b34, type: 2}
  m_StaticBatchInfo:
    firstSubMesh: 0
    subMeshCount: 0
  m_StaticBatchRoot: {fileID: 0}
  m_ProbeAnchor: {fileID: 0}
  m_LightProbeVolumeOverride: {fileID: 0}
  m_ScaleInLightmap: 1
  m_PreserveUVs: 0
  m_IgnoreNormalsForChartDetection: 0
  m_ImportantGI: 0
  m_StitchLightmapSeams: 0
  m_SelectedEditorRenderState: 3
  m_MinimumChartSize: 4
  m_AutoUVMaxDistance: 0.5
  m_AutoUVMaxAngle: 89
  m_LightmapParameters: {fileID: 0}
  m_SortingLayerID: 0
  m_SortingLayer: 0
  m_SortingOrder: 0
--- !u!23 &23468272174370114
MeshRenderer:
  m_ObjectHideFlags: 1
  m_PrefabParentObject: {fileID: 0}
  m_PrefabInternal: {fileID: 100100000}
  m_GameObject: {fileID: 1880779936809046}
  m_Enabled: 1
  m_CastShadows: 0
  m_ReceiveShadows: 0
  m_DynamicOccludee: 1
  m_MotionVectors: 1
  m_LightProbeUsage: 0
  m_ReflectionProbeUsage: 0
  m_Materials:
  - {fileID: 2100000, guid: 8c36e59665b5a4e4fae6022e7ca190d1, type: 2}
  m_StaticBatchInfo:
    firstSubMesh: 0
    subMeshCount: 0
  m_StaticBatchRoot: {fileID: 0}
  m_ProbeAnchor: {fileID: 0}
  m_LightProbeVolumeOverride: {fileID: 0}
  m_ScaleInLightmap: 1
  m_PreserveUVs: 0
  m_IgnoreNormalsForChartDetection: 0
  m_ImportantGI: 0
  m_StitchLightmapSeams: 0
  m_SelectedEditorRenderState: 3
  m_MinimumChartSize: 4
  m_AutoUVMaxDistance: 0.5
  m_AutoUVMaxAngle: 89
  m_LightmapParameters: {fileID: 0}
  m_SortingLayerID: 0
  m_SortingLayer: 0
  m_SortingOrder: 0
--- !u!23 &23516735758233848
MeshRenderer:
  m_ObjectHideFlags: 1
  m_PrefabParentObject: {fileID: 0}
  m_PrefabInternal: {fileID: 100100000}
  m_GameObject: {fileID: 1509919947319736}
  m_Enabled: 1
  m_CastShadows: 0
  m_ReceiveShadows: 0
  m_DynamicOccludee: 1
  m_MotionVectors: 1
  m_LightProbeUsage: 0
  m_ReflectionProbeUsage: 0
  m_Materials:
  - {fileID: 2100000, guid: b4f44f3804a902b4aa1322e6f9013b34, type: 2}
  m_StaticBatchInfo:
    firstSubMesh: 0
    subMeshCount: 0
  m_StaticBatchRoot: {fileID: 0}
  m_ProbeAnchor: {fileID: 0}
  m_LightProbeVolumeOverride: {fileID: 0}
  m_ScaleInLightmap: 1
  m_PreserveUVs: 0
  m_IgnoreNormalsForChartDetection: 0
  m_ImportantGI: 0
  m_StitchLightmapSeams: 0
  m_SelectedEditorRenderState: 3
  m_MinimumChartSize: 4
  m_AutoUVMaxDistance: 0.5
  m_AutoUVMaxAngle: 89
  m_LightmapParameters: {fileID: 0}
  m_SortingLayerID: 0
  m_SortingLayer: 0
  m_SortingOrder: 0
--- !u!23 &23531389436570290
MeshRenderer:
  m_ObjectHideFlags: 1
  m_PrefabParentObject: {fileID: 0}
  m_PrefabInternal: {fileID: 100100000}
  m_GameObject: {fileID: 1694122199457714}
  m_Enabled: 1
  m_CastShadows: 0
  m_ReceiveShadows: 0
  m_DynamicOccludee: 1
  m_MotionVectors: 1
  m_LightProbeUsage: 0
  m_ReflectionProbeUsage: 0
  m_Materials:
  - {fileID: 2100000, guid: 36b29b6af879b694a9e736465635e71f, type: 2}
  m_StaticBatchInfo:
    firstSubMesh: 0
    subMeshCount: 0
  m_StaticBatchRoot: {fileID: 0}
  m_ProbeAnchor: {fileID: 0}
  m_LightProbeVolumeOverride: {fileID: 0}
  m_ScaleInLightmap: 1
  m_PreserveUVs: 0
  m_IgnoreNormalsForChartDetection: 0
  m_ImportantGI: 0
  m_StitchLightmapSeams: 0
  m_SelectedEditorRenderState: 3
  m_MinimumChartSize: 4
  m_AutoUVMaxDistance: 0.5
  m_AutoUVMaxAngle: 89
  m_LightmapParameters: {fileID: 0}
  m_SortingLayerID: 0
  m_SortingLayer: 0
  m_SortingOrder: 0
--- !u!23 &23606133421376392
MeshRenderer:
  m_ObjectHideFlags: 1
  m_PrefabParentObject: {fileID: 0}
  m_PrefabInternal: {fileID: 100100000}
  m_GameObject: {fileID: 1235086778730694}
  m_Enabled: 1
  m_CastShadows: 0
  m_ReceiveShadows: 0
  m_DynamicOccludee: 1
  m_MotionVectors: 1
  m_LightProbeUsage: 0
  m_ReflectionProbeUsage: 0
  m_Materials:
  - {fileID: 2100000, guid: fcd7f8f1799b0b1428caba7d865195c0, type: 2}
  m_StaticBatchInfo:
    firstSubMesh: 0
    subMeshCount: 0
  m_StaticBatchRoot: {fileID: 0}
  m_ProbeAnchor: {fileID: 0}
  m_LightProbeVolumeOverride: {fileID: 0}
  m_ScaleInLightmap: 1
  m_PreserveUVs: 0
  m_IgnoreNormalsForChartDetection: 0
  m_ImportantGI: 0
  m_StitchLightmapSeams: 0
  m_SelectedEditorRenderState: 3
  m_MinimumChartSize: 4
  m_AutoUVMaxDistance: 0.5
  m_AutoUVMaxAngle: 89
  m_LightmapParameters: {fileID: 0}
  m_SortingLayerID: 0
  m_SortingLayer: 0
  m_SortingOrder: 0
--- !u!23 &23657325984084762
MeshRenderer:
  m_ObjectHideFlags: 1
  m_PrefabParentObject: {fileID: 0}
  m_PrefabInternal: {fileID: 100100000}
  m_GameObject: {fileID: 1736248860445468}
  m_Enabled: 1
  m_CastShadows: 0
  m_ReceiveShadows: 0
  m_DynamicOccludee: 1
  m_MotionVectors: 1
  m_LightProbeUsage: 0
  m_ReflectionProbeUsage: 0
  m_Materials:
  - {fileID: 2100000, guid: b4f44f3804a902b4aa1322e6f9013b34, type: 2}
  m_StaticBatchInfo:
    firstSubMesh: 0
    subMeshCount: 0
  m_StaticBatchRoot: {fileID: 0}
  m_ProbeAnchor: {fileID: 0}
  m_LightProbeVolumeOverride: {fileID: 0}
  m_ScaleInLightmap: 1
  m_PreserveUVs: 0
  m_IgnoreNormalsForChartDetection: 0
  m_ImportantGI: 0
  m_StitchLightmapSeams: 0
  m_SelectedEditorRenderState: 3
  m_MinimumChartSize: 4
  m_AutoUVMaxDistance: 0.5
  m_AutoUVMaxAngle: 89
  m_LightmapParameters: {fileID: 0}
  m_SortingLayerID: 0
  m_SortingLayer: 0
  m_SortingOrder: 0
--- !u!33 &33162872998797654
MeshFilter:
  m_ObjectHideFlags: 1
  m_PrefabParentObject: {fileID: 0}
  m_PrefabInternal: {fileID: 100100000}
  m_GameObject: {fileID: 1669484346730672}
  m_Mesh: {fileID: 4300004, guid: f4733ebc17a85784d9c91ee76cdbb23f, type: 3}
--- !u!33 &33264859978077000
MeshFilter:
  m_ObjectHideFlags: 1
  m_PrefabParentObject: {fileID: 0}
  m_PrefabInternal: {fileID: 100100000}
  m_GameObject: {fileID: 1235086778730694}
  m_Mesh: {fileID: 4300004, guid: 4b250d04710830b408d09e9b54fbfd63, type: 3}
--- !u!33 &33277861011656356
MeshFilter:
  m_ObjectHideFlags: 1
  m_PrefabParentObject: {fileID: 0}
  m_PrefabInternal: {fileID: 100100000}
  m_GameObject: {fileID: 1694122199457714}
  m_Mesh: {fileID: 4300002, guid: 4b54f5175f1754247adba209907aebb9, type: 3}
--- !u!33 &33647458852110776
MeshFilter:
  m_ObjectHideFlags: 1
  m_PrefabParentObject: {fileID: 0}
  m_PrefabInternal: {fileID: 100100000}
  m_GameObject: {fileID: 1880779936809046}
  m_Mesh: {fileID: 4300002, guid: d0d0e3d45b0560f4ca24e8f1919a0060, type: 3}
--- !u!33 &33724585236521710
MeshFilter:
  m_ObjectHideFlags: 1
  m_PrefabParentObject: {fileID: 0}
  m_PrefabInternal: {fileID: 100100000}
  m_GameObject: {fileID: 1509919947319736}
  m_Mesh: {fileID: 4300000, guid: 37af5168fc010974bac79427173cd45d, type: 3}
--- !u!33 &33736404752090522
MeshFilter:
  m_ObjectHideFlags: 1
  m_PrefabParentObject: {fileID: 0}
  m_PrefabInternal: {fileID: 100100000}
  m_GameObject: {fileID: 1736248860445468}
  m_Mesh: {fileID: 4300000, guid: e620bb68f43d52c469e8359bf33bd6dc, type: 3}
--- !u!33 &33819073337285840
MeshFilter:
  m_ObjectHideFlags: 1
  m_PrefabParentObject: {fileID: 0}
  m_PrefabInternal: {fileID: 100100000}
  m_GameObject: {fileID: 1976722799704826}
  m_Mesh: {fileID: 4300000, guid: 35854b85dc2384946901082b740f51cc, type: 3}
--- !u!33 &33983170115878480
MeshFilter:
  m_ObjectHideFlags: 1
  m_PrefabParentObject: {fileID: 0}
  m_PrefabInternal: {fileID: 100100000}
  m_GameObject: {fileID: 1570323619662310}
  m_Mesh: {fileID: 4300000, guid: 0832739f46ae85e429ad47899c36fe05, type: 3}
--- !u!64 &64088765387461604
MeshCollider:
  m_ObjectHideFlags: 1
  m_PrefabParentObject: {fileID: 0}
  m_PrefabInternal: {fileID: 100100000}
  m_GameObject: {fileID: 1235086778730694}
  m_Material: {fileID: 0}
  m_IsTrigger: 0
  m_Enabled: 1
  serializedVersion: 3
  m_Convex: 0
  m_CookingOptions: 14
  m_SkinWidth: 0.01
  m_Mesh: {fileID: 4300004, guid: 4b250d04710830b408d09e9b54fbfd63, type: 3}
--- !u!64 &64121326949352918
MeshCollider:
  m_ObjectHideFlags: 1
  m_PrefabParentObject: {fileID: 0}
  m_PrefabInternal: {fileID: 100100000}
  m_GameObject: {fileID: 1669484346730672}
  m_Material: {fileID: 0}
  m_IsTrigger: 0
  m_Enabled: 1
  serializedVersion: 3
  m_Convex: 0
  m_CookingOptions: 14
  m_SkinWidth: 0.01
  m_Mesh: {fileID: 4300004, guid: f4733ebc17a85784d9c91ee76cdbb23f, type: 3}
--- !u!64 &64338075454868380
MeshCollider:
  m_ObjectHideFlags: 1
  m_PrefabParentObject: {fileID: 0}
  m_PrefabInternal: {fileID: 100100000}
  m_GameObject: {fileID: 1694122199457714}
  m_Material: {fileID: 0}
  m_IsTrigger: 0
  m_Enabled: 1
  serializedVersion: 3
  m_Convex: 0
  m_CookingOptions: 14
  m_SkinWidth: 0.01
  m_Mesh: {fileID: 4300002, guid: 4b54f5175f1754247adba209907aebb9, type: 3}
--- !u!64 &64700570766401672
MeshCollider:
  m_ObjectHideFlags: 1
  m_PrefabParentObject: {fileID: 0}
  m_PrefabInternal: {fileID: 100100000}
  m_GameObject: {fileID: 1880779936809046}
  m_Material: {fileID: 0}
  m_IsTrigger: 0
  m_Enabled: 1
  serializedVersion: 3
  m_Convex: 0
  m_CookingOptions: 14
  m_SkinWidth: 0.01
  m_Mesh: {fileID: 4300002, guid: d0d0e3d45b0560f4ca24e8f1919a0060, type: 3}
--- !u!82 &82011938361195008
AudioSource:
  m_ObjectHideFlags: 1
  m_PrefabParentObject: {fileID: 0}
  m_PrefabInternal: {fileID: 100100000}
  m_GameObject: {fileID: 1694122199457714}
  m_Enabled: 1
  serializedVersion: 4
  OutputAudioMixerGroup: {fileID: 24368626, guid: faa5d63fc44b7934da13fa4307dcad1e,
    type: 2}
  m_audioClip: {fileID: 0}
  m_PlayOnAwake: 0
  m_Volume: 1
  m_Pitch: 1
  Loop: 0
  Mute: 0
  Spatialize: 0
  SpatializePostEffects: 0
  Priority: 128
  DopplerLevel: 1
  MinDistance: 1
  MaxDistance: 500
  Pan2D: 0
  rolloffMode: 0
  BypassEffects: 0
  BypassListenerEffects: 0
  BypassReverbZones: 0
  rolloffCustomCurve:
    serializedVersion: 2
    m_Curve:
    - serializedVersion: 2
      time: 0
      value: 1
      inSlope: 0
      outSlope: 0
      tangentMode: 0
    - serializedVersion: 2
      time: 1
      value: 0
      inSlope: 0
      outSlope: 0
      tangentMode: 0
    m_PreInfinity: 2
    m_PostInfinity: 2
    m_RotationOrder: 4
  panLevelCustomCurve:
    serializedVersion: 2
    m_Curve:
    - serializedVersion: 2
      time: 0
      value: 0
      inSlope: 0
      outSlope: 0
      tangentMode: 0
    m_PreInfinity: 2
    m_PostInfinity: 2
    m_RotationOrder: 0
  spreadCustomCurve:
    serializedVersion: 2
    m_Curve:
    - serializedVersion: 2
      time: 0
      value: 0
      inSlope: 0
      outSlope: 0
      tangentMode: 0
    m_PreInfinity: 2
    m_PostInfinity: 2
    m_RotationOrder: 4
  reverbZoneMixCustomCurve:
    serializedVersion: 2
    m_Curve:
    - serializedVersion: 2
      time: 0
      value: 1
      inSlope: 0
      outSlope: 0
      tangentMode: 0
    m_PreInfinity: 2
    m_PostInfinity: 2
    m_RotationOrder: 0
--- !u!82 &82294788354870952
AudioSource:
  m_ObjectHideFlags: 1
  m_PrefabParentObject: {fileID: 0}
  m_PrefabInternal: {fileID: 100100000}
  m_GameObject: {fileID: 1880779936809046}
  m_Enabled: 1
  serializedVersion: 4
  OutputAudioMixerGroup: {fileID: 24368626, guid: faa5d63fc44b7934da13fa4307dcad1e,
    type: 2}
  m_audioClip: {fileID: 0}
  m_PlayOnAwake: 0
  m_Volume: 1
  m_Pitch: 1
  Loop: 0
  Mute: 0
  Spatialize: 0
  SpatializePostEffects: 0
  Priority: 128
  DopplerLevel: 1
  MinDistance: 1
  MaxDistance: 500
  Pan2D: 0
  rolloffMode: 0
  BypassEffects: 0
  BypassListenerEffects: 0
  BypassReverbZones: 0
  rolloffCustomCurve:
    serializedVersion: 2
    m_Curve:
    - serializedVersion: 2
      time: 0
      value: 1
      inSlope: 0
      outSlope: 0
      tangentMode: 0
    - serializedVersion: 2
      time: 1
      value: 0
      inSlope: 0
      outSlope: 0
      tangentMode: 0
    m_PreInfinity: 2
    m_PostInfinity: 2
    m_RotationOrder: 4
  panLevelCustomCurve:
    serializedVersion: 2
    m_Curve:
    - serializedVersion: 2
      time: 0
      value: 0
      inSlope: 0
      outSlope: 0
      tangentMode: 0
    m_PreInfinity: 2
    m_PostInfinity: 2
    m_RotationOrder: 0
  spreadCustomCurve:
    serializedVersion: 2
    m_Curve:
    - serializedVersion: 2
      time: 0
      value: 0
      inSlope: 0
      outSlope: 0
      tangentMode: 0
    m_PreInfinity: 2
    m_PostInfinity: 2
    m_RotationOrder: 4
  reverbZoneMixCustomCurve:
    serializedVersion: 2
    m_Curve:
    - serializedVersion: 2
      time: 0
      value: 1
      inSlope: 0
      outSlope: 0
      tangentMode: 0
    m_PreInfinity: 2
    m_PostInfinity: 2
    m_RotationOrder: 0
--- !u!82 &82735306421981854
AudioSource:
  m_ObjectHideFlags: 1
  m_PrefabParentObject: {fileID: 0}
  m_PrefabInternal: {fileID: 100100000}
  m_GameObject: {fileID: 1235086778730694}
  m_Enabled: 1
  serializedVersion: 4
  OutputAudioMixerGroup: {fileID: 24368626, guid: faa5d63fc44b7934da13fa4307dcad1e,
    type: 2}
  m_audioClip: {fileID: 0}
  m_PlayOnAwake: 0
  m_Volume: 1
  m_Pitch: 1
  Loop: 0
  Mute: 0
  Spatialize: 0
  SpatializePostEffects: 0
  Priority: 128
  DopplerLevel: 1
  MinDistance: 1
  MaxDistance: 500
  Pan2D: 0
  rolloffMode: 0
  BypassEffects: 0
  BypassListenerEffects: 0
  BypassReverbZones: 0
  rolloffCustomCurve:
    serializedVersion: 2
    m_Curve:
    - serializedVersion: 2
      time: 0
      value: 1
      inSlope: 0
      outSlope: 0
      tangentMode: 0
    - serializedVersion: 2
      time: 1
      value: 0
      inSlope: 0
      outSlope: 0
      tangentMode: 0
    m_PreInfinity: 2
    m_PostInfinity: 2
    m_RotationOrder: 4
  panLevelCustomCurve:
    serializedVersion: 2
    m_Curve:
    - serializedVersion: 2
      time: 0
      value: 0
      inSlope: 0
      outSlope: 0
      tangentMode: 0
    m_PreInfinity: 2
    m_PostInfinity: 2
    m_RotationOrder: 0
  spreadCustomCurve:
    serializedVersion: 2
    m_Curve:
    - serializedVersion: 2
      time: 0
      value: 0
      inSlope: 0
      outSlope: 0
      tangentMode: 0
    m_PreInfinity: 2
    m_PostInfinity: 2
    m_RotationOrder: 4
  reverbZoneMixCustomCurve:
    serializedVersion: 2
    m_Curve:
    - serializedVersion: 2
      time: 0
      value: 1
      inSlope: 0
      outSlope: 0
      tangentMode: 0
    m_PreInfinity: 2
    m_PostInfinity: 2
    m_RotationOrder: 0
--- !u!82 &82849527156809740
AudioSource:
  m_ObjectHideFlags: 1
  m_PrefabParentObject: {fileID: 0}
  m_PrefabInternal: {fileID: 100100000}
  m_GameObject: {fileID: 1669484346730672}
  m_Enabled: 1
  serializedVersion: 4
  OutputAudioMixerGroup: {fileID: 24368626, guid: faa5d63fc44b7934da13fa4307dcad1e,
    type: 2}
  m_audioClip: {fileID: 0}
  m_PlayOnAwake: 0
  m_Volume: 1
  m_Pitch: 1
  Loop: 0
  Mute: 0
  Spatialize: 0
  SpatializePostEffects: 0
  Priority: 128
  DopplerLevel: 1
  MinDistance: 1
  MaxDistance: 500
  Pan2D: 0
  rolloffMode: 0
  BypassEffects: 0
  BypassListenerEffects: 0
  BypassReverbZones: 0
  rolloffCustomCurve:
    serializedVersion: 2
    m_Curve:
    - serializedVersion: 2
      time: 0
      value: 1
      inSlope: 0
      outSlope: 0
      tangentMode: 0
    - serializedVersion: 2
      time: 1
      value: 0
      inSlope: 0
      outSlope: 0
      tangentMode: 0
    m_PreInfinity: 2
    m_PostInfinity: 2
    m_RotationOrder: 4
  panLevelCustomCurve:
    serializedVersion: 2
    m_Curve:
    - serializedVersion: 2
      time: 0
      value: 0
      inSlope: 0
      outSlope: 0
      tangentMode: 0
    m_PreInfinity: 2
    m_PostInfinity: 2
    m_RotationOrder: 0
  spreadCustomCurve:
    serializedVersion: 2
    m_Curve:
    - serializedVersion: 2
      time: 0
      value: 0
      inSlope: 0
      outSlope: 0
      tangentMode: 0
    m_PreInfinity: 2
    m_PostInfinity: 2
    m_RotationOrder: 4
  reverbZoneMixCustomCurve:
    serializedVersion: 2
    m_Curve:
    - serializedVersion: 2
      time: 0
      value: 1
      inSlope: 0
      outSlope: 0
      tangentMode: 0
    m_PreInfinity: 2
    m_PostInfinity: 2
    m_RotationOrder: 0
--- !u!95 &95187233261392952
Animator:
  serializedVersion: 3
  m_ObjectHideFlags: 1
  m_PrefabParentObject: {fileID: 0}
  m_PrefabInternal: {fileID: 100100000}
  m_GameObject: {fileID: 1694122199457714}
  m_Enabled: 1
  m_Avatar: {fileID: 0}
  m_Controller: {fileID: 9100000, guid: 751a482b97b91cd4abf99c5bbfc18b3e, type: 2}
  m_CullingMode: 0
  m_UpdateMode: 0
  m_ApplyRootMotion: 0
  m_LinearVelocityBlending: 0
  m_WarningMessage: 
  m_HasTransformHierarchy: 1
  m_AllowConstantClipSamplingOptimization: 1
--- !u!95 &95400299270808182
Animator:
  serializedVersion: 3
  m_ObjectHideFlags: 1
  m_PrefabParentObject: {fileID: 0}
  m_PrefabInternal: {fileID: 100100000}
  m_GameObject: {fileID: 1880779936809046}
  m_Enabled: 1
  m_Avatar: {fileID: 0}
  m_Controller: {fileID: 9100000, guid: cc919caf52ad65348995004d09f96c46, type: 2}
  m_CullingMode: 0
  m_UpdateMode: 0
  m_ApplyRootMotion: 0
  m_LinearVelocityBlending: 0
  m_WarningMessage: 
  m_HasTransformHierarchy: 1
  m_AllowConstantClipSamplingOptimization: 1
--- !u!114 &114001902286518086
MonoBehaviour:
  m_ObjectHideFlags: 1
  m_PrefabParentObject: {fileID: 0}
  m_PrefabInternal: {fileID: 100100000}
  m_GameObject: {fileID: 1509919947319736}
  m_Enabled: 1
  m_EditorHideFlags: 0
  m_Script: {fileID: 11500000, guid: 0f515153fbae26345b4924caf8afa909, type: 3}
  m_Name: 
  m_EditorClassIdentifier: 
  m_Transform: {fileID: 4169959287003604}
  m_Item: {fileID: 114134277314070928}
  m_PopSpeed: 2.5
  m_PopDistance: 0.65
--- !u!114 &114050414913043912
MonoBehaviour:
  m_ObjectHideFlags: 1
  m_PrefabParentObject: {fileID: 0}
  m_PrefabInternal: {fileID: 100100000}
  m_GameObject: {fileID: 1235086778730694}
  m_Enabled: 1
  m_EditorHideFlags: 0
  m_Script: {fileID: 11500000, guid: 7fea6f8eea666334aaf9869ad8f7bcda, type: 3}
  m_Name: 
  m_EditorClassIdentifier: 
--- !u!114 &114101875127382244
MonoBehaviour:
  m_ObjectHideFlags: 1
  m_PrefabParentObject: {fileID: 0}
  m_PrefabInternal: {fileID: 100100000}
  m_GameObject: {fileID: 1880779936809046}
  m_Enabled: 1
  m_EditorHideFlags: 0
  m_Script: {fileID: 11500000, guid: 0742577183eb7964686ad45f844edd4e, type: 3}
  m_Name: 
  m_EditorClassIdentifier: 
  m_SceneToLoad: Shooter180
  m_CameraFade: {fileID: 0}
  m_SelectionRadial: {fileID: 0}
  m_InteractiveItem: {fileID: 114856542112950072}
--- !u!114 &114117131190408714
MonoBehaviour:
  m_ObjectHideFlags: 1
  m_PrefabParentObject: {fileID: 0}
  m_PrefabInternal: {fileID: 100100000}
  m_GameObject: {fileID: 1976722799704826}
  m_Enabled: 1
  m_EditorHideFlags: 0
  m_Script: {fileID: 11500000, guid: 0f515153fbae26345b4924caf8afa909, type: 3}
  m_Name: 
  m_EditorClassIdentifier: 
  m_Transform: {fileID: 4657008853332496}
  m_Item: {fileID: 114395030954941530}
  m_PopSpeed: 2.5
  m_PopDistance: 0.65
--- !u!114 &114128466457054266
MonoBehaviour:
  m_ObjectHideFlags: 1
  m_PrefabParentObject: {fileID: 0}
  m_PrefabInternal: {fileID: 100100000}
  m_GameObject: {fileID: 1736248860445468}
  m_Enabled: 1
  m_EditorHideFlags: 0
  m_Script: {fileID: 11500000, guid: 0f515153fbae26345b4924caf8afa909, type: 3}
  m_Name: 
  m_EditorClassIdentifier: 
  m_Transform: {fileID: 4872585206375792}
  m_Item: {fileID: 114856542112950072}
  m_PopSpeed: 2.5
  m_PopDistance: 0.65
--- !u!114 &114134277314070928
MonoBehaviour:
  m_ObjectHideFlags: 1
  m_PrefabParentObject: {fileID: 0}
  m_PrefabInternal: {fileID: 100100000}
  m_GameObject: {fileID: 1694122199457714}
  m_Enabled: 1
  m_EditorHideFlags: 0
  m_Script: {fileID: 11500000, guid: 7fea6f8eea666334aaf9869ad8f7bcda, type: 3}
  m_Name: 
  m_EditorClassIdentifier: 
--- !u!114 &114268001269318738
MonoBehaviour:
  m_ObjectHideFlags: 1
  m_PrefabParentObject: {fileID: 0}
  m_PrefabInternal: {fileID: 100100000}
  m_GameObject: {fileID: 1669484346730672}
  m_Enabled: 1
  m_EditorHideFlags: 0
  m_Script: {fileID: 11500000, guid: 0f515153fbae26345b4924caf8afa909, type: 3}
  m_Name: 
  m_EditorClassIdentifier: 
  m_Transform: {fileID: 4591213269028372}
  m_Item: {fileID: 114395030954941530}
  m_PopSpeed: 8
  m_PopDistance: 0.5
--- !u!114 &114269033565587116
MonoBehaviour:
  m_ObjectHideFlags: 1
  m_PrefabParentObject: {fileID: 0}
  m_PrefabInternal: {fileID: 100100000}
  m_GameObject: {fileID: 1235086778730694}
  m_Enabled: 1
  m_EditorHideFlags: 0
  m_Script: {fileID: 11500000, guid: e1539d9bad5ac9f449d81d13b171da44, type: 3}
  m_Name: 
  m_EditorClassIdentifier: 
  m_FrameRate: 30
  m_ScreenMesh: {fileID: 23606133421376392}
  m_VRInteractiveItem: {fileID: 114050414913043912}
  m_AnimTextures:
  - {fileID: 2800000, guid: 06d3db573b9f07b45a9c085056a31fe7, type: 3}
  - {fileID: 2800000, guid: 6b7b9f33e5ea06e448849b1f5bf5a33b, type: 3}
  - {fileID: 2800000, guid: 748dd63b97f0806428f3f4d25b167e8e, type: 3}
  - {fileID: 2800000, guid: e4f7581cbcc7c844286912c6cf9a4e6b, type: 3}
  - {fileID: 2800000, guid: 633e56633a3c5ba42aa21e31f6f90e7a, type: 3}
  - {fileID: 2800000, guid: 258ec9eb4a9787045a3352ced5b80fca, type: 3}
  - {fileID: 2800000, guid: 10555c2b10116464c89e47d9611a6803, type: 3}
  - {fileID: 2800000, guid: b771e08c7507df54ca4109838fd891c7, type: 3}
  - {fileID: 2800000, guid: f7e47d6978dd21146b53d9c48e14b2eb, type: 3}
  - {fileID: 2800000, guid: 53997d59711d11742b7c8e4c9ad6d141, type: 3}
  - {fileID: 2800000, guid: 2f2c56829f80e5d4884837557f5842a2, type: 3}
  - {fileID: 2800000, guid: d354fd9027c971943a5a19337a430810, type: 3}
  - {fileID: 2800000, guid: e7fd5dc4520522b40bbd50c25d1f6505, type: 3}
  - {fileID: 2800000, guid: e1a730659c5f814449a9ebe19d4708ba, type: 3}
  - {fileID: 2800000, guid: 8b8a9d0e0169990439be469548bcd3de, type: 3}
  - {fileID: 2800000, guid: 78d97f9003c7b7b48807e4110ca26a7e, type: 3}
  - {fileID: 2800000, guid: 572849c1831f6b440a3bff6fc6f93753, type: 3}
  - {fileID: 2800000, guid: 77aef5b1b43aa454581feda1977a7070, type: 3}
  - {fileID: 2800000, guid: 57661e33ac3b9454aa3968d29682f967, type: 3}
  - {fileID: 2800000, guid: 1e48f075900597f48844182460d9a7bf, type: 3}
  - {fileID: 2800000, guid: da2c0cc1a34595144be2bb215e6b5325, type: 3}
  - {fileID: 2800000, guid: 1e2fb1d84b5dc7543ba6e56fa0b1ec37, type: 3}
  - {fileID: 2800000, guid: 9c65f6a67575b804ba72e05d0684eec4, type: 3}
  - {fileID: 2800000, guid: d8390a5e8b68dfc4e9c5a3ace7ab5e55, type: 3}
  - {fileID: 2800000, guid: bae675e8443f8174b84b83c48fb74da1, type: 3}
  - {fileID: 2800000, guid: 44cc34c478342514db44bea08456bef7, type: 3}
  - {fileID: 2800000, guid: 42503bedb47f37f419bca24f66c9a6df, type: 3}
  - {fileID: 2800000, guid: 520dc91048c626a4fb428c38b087ed6a, type: 3}
  - {fileID: 2800000, guid: 2851a6b27a3631f49acf2ae882e7696f, type: 3}
  - {fileID: 2800000, guid: 04d3a4bc99cb3244394ed5a38b793579, type: 3}
  - {fileID: 2800000, guid: 31ebaa1729c6b3149b5358f6cfc3f92f, type: 3}
  - {fileID: 2800000, guid: 6540a093e5c6cba43a97e9567c2d0e5f, type: 3}
  - {fileID: 2800000, guid: 38b688d2252683d42850518064f21036, type: 3}
  - {fileID: 2800000, guid: cec5e8249daae1542b2a1a77c1b59bbb, type: 3}
  - {fileID: 2800000, guid: 8f94eb72267077a4c9996324e886f1ce, type: 3}
  - {fileID: 2800000, guid: 4748b852ccfb50c4b8beefa5825336e2, type: 3}
  - {fileID: 2800000, guid: fbf50ea618dfd1346a0fa4ebc17b7d0a, type: 3}
  - {fileID: 2800000, guid: 5b44a51d19497994397c0c086e789320, type: 3}
  - {fileID: 2800000, guid: f08fe10a7feaa1f42a1a80628a6c10a4, type: 3}
  - {fileID: 2800000, guid: 547211bc04544064b8bd102a5b5d6eb2, type: 3}
  - {fileID: 2800000, guid: a4af4628a4a97df4e845a28a5ec588f5, type: 3}
  - {fileID: 2800000, guid: 16963e6d037aa5648b834238172630c1, type: 3}
  - {fileID: 2800000, guid: 1353497d3bf84c14288637ec680ba675, type: 3}
  - {fileID: 2800000, guid: 581d45a40cf1064468376199bc5b8437, type: 3}
  - {fileID: 2800000, guid: ef2a7fedc75b7414d8b5439193f3bccd, type: 3}
  - {fileID: 2800000, guid: 382598e3c6303d7469fbc4a41d00c511, type: 3}
  - {fileID: 2800000, guid: d1c54e3205e9be948937b1060cd7e105, type: 3}
  - {fileID: 2800000, guid: 779e4eb3e9fae3f419c744bd6cda2976, type: 3}
  - {fileID: 2800000, guid: 1c88aaf943769d049b3f5ef25d922725, type: 3}
  - {fileID: 2800000, guid: 4a333ef13d319b34aaafbf0393bd383e, type: 3}
  - {fileID: 2800000, guid: ed2ef6787fc0ec34695415c3f67fef98, type: 3}
  - {fileID: 2800000, guid: eaedcabf888848542afc6a63c35238ef, type: 3}
  - {fileID: 2800000, guid: ca09cae32da56d64d98a958a44ce38f2, type: 3}
  - {fileID: 2800000, guid: 2e82a748b6f0ce34cbe826b2ecd95046, type: 3}
  - {fileID: 2800000, guid: 448e74fbaa3682b46a75d02fb9008bed, type: 3}
  - {fileID: 2800000, guid: ef6768ed5bae7374abcb7c6443b5740e, type: 3}
  - {fileID: 2800000, guid: c54d590df27c7fc4c977a606acf422f0, type: 3}
  - {fileID: 2800000, guid: bad10d320047a6c47918fb18896f4f0a, type: 3}
  - {fileID: 2800000, guid: 3322db6387a28624a9b4574a92053ddd, type: 3}
  - {fileID: 2800000, guid: fa80ac04f40463e44a1c74727da9398b, type: 3}
  - {fileID: 2800000, guid: c850c37caa1f5e24cb9c4fd65beccf1c, type: 3}
  - {fileID: 2800000, guid: 6883d6c1982edef4bafcd2b8bb988092, type: 3}
  - {fileID: 2800000, guid: d25659b4a87871b4387251d12589baa1, type: 3}
  - {fileID: 2800000, guid: 6a659ada1c01a0f4096d25f4ce5d240e, type: 3}
  - {fileID: 2800000, guid: f576bf74e95a1824da3a7af7e5343364, type: 3}
  - {fileID: 2800000, guid: f7442d0509ac12a4faf7bd4550212d5a, type: 3}
  - {fileID: 2800000, guid: 76c7d193524d2ab4e89e0f2022270b6f, type: 3}
  - {fileID: 2800000, guid: 6cf920b8845cab546ad1ae2aaeafca1e, type: 3}
  - {fileID: 2800000, guid: ac73fdc4e2bdc4d4b94e53f49e724fdf, type: 3}
  - {fileID: 2800000, guid: 2334dadd7b1e455469000942639b84d0, type: 3}
  - {fileID: 2800000, guid: dd3946e656c36a04bb1df1ba6f384645, type: 3}
  - {fileID: 2800000, guid: ba2ca31a0f7b73b429cbaa7e36a77b8f, type: 3}
  - {fileID: 2800000, guid: 6836e2e3c2abe214eaef30b9a188bb3f, type: 3}
  - {fileID: 2800000, guid: 088ce482d4749e34d85d12c1695e1f4b, type: 3}
  - {fileID: 2800000, guid: ddda3c87b17dec243ad12f2003184406, type: 3}
  - {fileID: 2800000, guid: 1796cb98c10b9f54a9d2d97ac5b66570, type: 3}
--- !u!114 &114315597401370064
MonoBehaviour:
  m_ObjectHideFlags: 1
  m_PrefabParentObject: {fileID: 0}
  m_PrefabInternal: {fileID: 100100000}
  m_GameObject: {fileID: 1235086778730694}
  m_Enabled: 1
  m_EditorHideFlags: 0
  m_Script: {fileID: 11500000, guid: 0742577183eb7964686ad45f844edd4e, type: 3}
  m_Name: 
  m_EditorClassIdentifier: 
  m_SceneToLoad: Maze
  m_CameraFade: {fileID: 0}
  m_SelectionRadial: {fileID: 0}
  m_InteractiveItem: {fileID: 114050414913043912}
--- !u!114 &114328933817056230
MonoBehaviour:
  m_ObjectHideFlags: 1
  m_PrefabParentObject: {fileID: 0}
  m_PrefabInternal: {fileID: 100100000}
  m_GameObject: {fileID: 1235086778730694}
  m_Enabled: 1
  m_EditorHideFlags: 0
  m_Script: {fileID: 11500000, guid: 0f515153fbae26345b4924caf8afa909, type: 3}
  m_Name: 
  m_EditorClassIdentifier: 
  m_Transform: {fileID: 4294808147332880}
  m_Item: {fileID: 114050414913043912}
  m_PopSpeed: 8
  m_PopDistance: 0.5
--- !u!114 &114370009623452146
MonoBehaviour:
  m_ObjectHideFlags: 1
  m_PrefabParentObject: {fileID: 0}
  m_PrefabInternal: {fileID: 100100000}
  m_GameObject: {fileID: 1694122199457714}
  m_Enabled: 1
  m_EditorHideFlags: 0
  m_Script: {fileID: 11500000, guid: e1539d9bad5ac9f449d81d13b171da44, type: 3}
  m_Name: 
  m_EditorClassIdentifier: 
  m_FrameRate: 30
  m_ScreenMesh: {fileID: 23531389436570290}
  m_VRInteractiveItem: {fileID: 114134277314070928}
  m_AnimTextures:
  - {fileID: 2800000, guid: 6e8f503ce8ee3944a86241d1cb35ddd0, type: 3}
  - {fileID: 2800000, guid: 50e299d698240e148b606d8d0c4e6c89, type: 3}
  - {fileID: 2800000, guid: 9baf51adaaba1e64191f1120643f70a1, type: 3}
  - {fileID: 2800000, guid: 4b9a21fe133c1004d8f3251f86679a98, type: 3}
  - {fileID: 2800000, guid: b9f7ac653799334478eeb7c626373579, type: 3}
  - {fileID: 2800000, guid: 26ed68bbed8755d449cdca7df494de76, type: 3}
  - {fileID: 2800000, guid: 3bd7ea0f1ca21544e9f6f2e9cf70127e, type: 3}
  - {fileID: 2800000, guid: eb0464268784dab4890011e855cc4f8d, type: 3}
  - {fileID: 2800000, guid: 9f149b6b8825d284aa2e23e4e73518ad, type: 3}
  - {fileID: 2800000, guid: a55a40f9b34a3374c83fc68d3677cd3e, type: 3}
  - {fileID: 2800000, guid: 6793ad307a1265842ac050b63b1e1f60, type: 3}
  - {fileID: 2800000, guid: 633bcd2febd7cf84fb10afde32a45bed, type: 3}
  - {fileID: 2800000, guid: db648a10af182f7438c838c82e862d71, type: 3}
  - {fileID: 2800000, guid: 1370e94366e512343bdcd11d1b615aae, type: 3}
  - {fileID: 2800000, guid: 60993226661fb2342a3967d88ddefe27, type: 3}
  - {fileID: 2800000, guid: f37b06bae52fe6f43a88ac0765f601bf, type: 3}
  - {fileID: 2800000, guid: ad21158fde82eea4c8fb777d19d26751, type: 3}
  - {fileID: 2800000, guid: 0a54884d50ebe114096b20320197a900, type: 3}
  - {fileID: 2800000, guid: 83a869a25ac33b04fae37f80df0495a3, type: 3}
  - {fileID: 2800000, guid: 7ba30476ddf62a84285cfd2ca8eb1e8c, type: 3}
  - {fileID: 2800000, guid: 35b0862fb34ff7642a9a324497bc5bf4, type: 3}
  - {fileID: 2800000, guid: ecc8301c00a6f424fa8ac529f106b85a, type: 3}
  - {fileID: 2800000, guid: edc5060f1c6a83549b0e983c22a68b0d, type: 3}
  - {fileID: 2800000, guid: 1d7b30b28da7bb14b892a0cf788da9ba, type: 3}
  - {fileID: 2800000, guid: 8debe8d61e9000048a18d72b7363c668, type: 3}
  - {fileID: 2800000, guid: a5640c2ecc822ce48a39c259fddcb781, type: 3}
  - {fileID: 2800000, guid: 7fc7d9749566b3b41a9aea5ef67d4867, type: 3}
  - {fileID: 2800000, guid: bd532e4151c3eb8429033d3666feca7d, type: 3}
  - {fileID: 2800000, guid: 913367961b686eb4cb252c75993fdccb, type: 3}
  - {fileID: 2800000, guid: 6378a6c20070a494fb30ed4e3e8340d0, type: 3}
  - {fileID: 2800000, guid: 0e71acc5d8ffc4e4f9b29d40885b4989, type: 3}
  - {fileID: 2800000, guid: 39aa7ae95a9b2a14cac247964d0a9e66, type: 3}
  - {fileID: 2800000, guid: 6501c3a33fb1cc348b40054289b9b53e, type: 3}
  - {fileID: 2800000, guid: 86ce1639ba771954f9c20bf0d11b019a, type: 3}
  - {fileID: 2800000, guid: feb7329739d812443bdc720716ae03be, type: 3}
  - {fileID: 2800000, guid: d66535b90b41e73468ffab37d65da360, type: 3}
  - {fileID: 2800000, guid: 8ac8fbf75e9981e40aa8a8f8e2c899be, type: 3}
  - {fileID: 2800000, guid: b89f9fa2d6fe914478c1510272815970, type: 3}
  - {fileID: 2800000, guid: 9c5dabd77a4859f4fbb83db2d58cdca3, type: 3}
  - {fileID: 2800000, guid: 44c779d644074fa409d2aacdcaaa6142, type: 3}
  - {fileID: 2800000, guid: d2acd8dc43d867a409be712320a43221, type: 3}
  - {fileID: 2800000, guid: 0e95787c6d180194ab19e9fc8cb14032, type: 3}
  - {fileID: 2800000, guid: 47816b30df3dbf543b635b189d64b724, type: 3}
  - {fileID: 2800000, guid: bee6d09c01d08434daed8ffcc43e130b, type: 3}
  - {fileID: 2800000, guid: dbe67ed3d6293b24ea111a9d34f80406, type: 3}
  - {fileID: 2800000, guid: ba8da907586cc8749800a0bb08b12ca9, type: 3}
  - {fileID: 2800000, guid: 821c8ae7ac0dd7748a6a0d09bbd36e00, type: 3}
  - {fileID: 2800000, guid: 5fc40d89579eb0a46bbd327dedd182df, type: 3}
  - {fileID: 2800000, guid: 4aaede83084365e44b55f3ceddce54d3, type: 3}
  - {fileID: 2800000, guid: 2cb320b9339d28c45aa766f42d9aab8c, type: 3}
  - {fileID: 2800000, guid: 1fd4e21cd6df4ce40b29d602cb83a0e2, type: 3}
  - {fileID: 2800000, guid: 5bf1f578436b29f40bb9ffa4f4f3d7e9, type: 3}
  - {fileID: 2800000, guid: 4493016a51286c74d94038f9b4b8e91f, type: 3}
  - {fileID: 2800000, guid: 705b311b6174eac41ad97b0c0cd07c45, type: 3}
  - {fileID: 2800000, guid: dff2b206351d0834cb2ea66d7ec922f6, type: 3}
  - {fileID: 2800000, guid: c521268a6dc9e9d4a8a20ca69d6fc19c, type: 3}
  - {fileID: 2800000, guid: e3914e1b16ad2424795318949b3151e5, type: 3}
  - {fileID: 2800000, guid: 0d728bd7e613c69478fda0f3710c3dca, type: 3}
  - {fileID: 2800000, guid: c696fbeeb42cfe3499da71497326ba27, type: 3}
  - {fileID: 2800000, guid: aab983de1cbb5d24f88a88b3af70280e, type: 3}
  - {fileID: 2800000, guid: f9b30377a38c0a8449927461702ff960, type: 3}
  - {fileID: 2800000, guid: be62477462293974f980b88efd5c00db, type: 3}
  - {fileID: 2800000, guid: 28b0929aa59e6ef4eb93162e3a62bcba, type: 3}
  - {fileID: 2800000, guid: 177a509ce9d159f44837428c398857cc, type: 3}
  - {fileID: 2800000, guid: bf295d1481c207c4e9c6e837f4200039, type: 3}
  - {fileID: 2800000, guid: 649db542301e01c4cbc5b759d38ea04f, type: 3}
  - {fileID: 2800000, guid: 3e64c659e1dedd24ebbfbaec95111f3c, type: 3}
  - {fileID: 2800000, guid: 2ce0f3f2508942944bb71c4ef5f93564, type: 3}
  - {fileID: 2800000, guid: cfb98b41393428e47871f3a9af6b14a7, type: 3}
  - {fileID: 2800000, guid: fccf5d84382326f4eb3b13850483c85b, type: 3}
  - {fileID: 2800000, guid: f074b1df3aa214b4baef26ba29ebe3a2, type: 3}
  - {fileID: 2800000, guid: f4487ff823100824a81954ef7db900a1, type: 3}
  - {fileID: 2800000, guid: 17484f146f8906446946fbca93de62ec, type: 3}
  - {fileID: 2800000, guid: c854bad30bc758c4b9a21b168fac6fa7, type: 3}
  - {fileID: 2800000, guid: 54219db0724706445bfe8f59a5328a9d, type: 3}
  - {fileID: 2800000, guid: bfaa8e8ac0666694b8b4916afa9dc821, type: 3}
--- !u!114 &114395030954941530
MonoBehaviour:
  m_ObjectHideFlags: 1
  m_PrefabParentObject: {fileID: 0}
  m_PrefabInternal: {fileID: 100100000}
  m_GameObject: {fileID: 1669484346730672}
  m_Enabled: 1
  m_EditorHideFlags: 0
  m_Script: {fileID: 11500000, guid: 7fea6f8eea666334aaf9869ad8f7bcda, type: 3}
  m_Name: 
  m_EditorClassIdentifier: 
--- !u!114 &114460781330866888
MonoBehaviour:
  m_ObjectHideFlags: 1
  m_PrefabParentObject: {fileID: 0}
  m_PrefabInternal: {fileID: 100100000}
  m_GameObject: {fileID: 1669484346730672}
  m_Enabled: 1
  m_EditorHideFlags: 0
  m_Script: {fileID: 11500000, guid: 0742577183eb7964686ad45f844edd4e, type: 3}
  m_Name: 
  m_EditorClassIdentifier: 
  m_SceneToLoad: Flyer
  m_CameraFade: {fileID: 0}
  m_SelectionRadial: {fileID: 0}
  m_InteractiveItem: {fileID: 114395030954941530}
--- !u!114 &114471866745647340
MonoBehaviour:
  m_ObjectHideFlags: 1
  m_PrefabParentObject: {fileID: 0}
  m_PrefabInternal: {fileID: 100100000}
  m_GameObject: {fileID: 1235086778730694}
  m_Enabled: 1
  m_EditorHideFlags: 0
  m_Script: {fileID: 11500000, guid: 3138a0d76dfdea846a0a250e0c262f75, type: 3}
  m_Name: 
  m_EditorClassIdentifier: 
  m_Duration: 2
  m_Audio: {fileID: 82735306421981854}
  m_OnOverClip: {fileID: 8300000, guid: 2bd66143af0efeb4e884e4273d2ed956, type: 3}
  m_OnFilledClip: {fileID: 8300000, guid: 9f9d2c4dc4b50704bbf83a0e84e35936, type: 3}
  m_Slider: {fileID: 0}
  m_InteractiveItem: {fileID: 114050414913043912}
  m_VRInput: {fileID: 0}
  m_BarCanvas: {fileID: 0}
  m_Renderer: {fileID: 0}
  m_SelectionRadial: {fileID: 0}
  m_UIFader: {fileID: 0}
  m_Collider: {fileID: 0}
  m_DisableOnBarFill: 1
  m_DisappearOnBarFill: 0
--- !u!114 &114542468680191272
MonoBehaviour:
  m_ObjectHideFlags: 1
  m_PrefabParentObject: {fileID: 0}
  m_PrefabInternal: {fileID: 100100000}
  m_GameObject: {fileID: 1694122199457714}
  m_Enabled: 1
  m_EditorHideFlags: 0
  m_Script: {fileID: 11500000, guid: 0f515153fbae26345b4924caf8afa909, type: 3}
  m_Name: 
  m_EditorClassIdentifier: 
  m_Transform: {fileID: 4757824665224806}
  m_Item: {fileID: 114134277314070928}
  m_PopSpeed: 8
  m_PopDistance: 0.5
--- !u!114 &114556921582188110
MonoBehaviour:
  m_ObjectHideFlags: 1
  m_PrefabParentObject: {fileID: 0}
  m_PrefabInternal: {fileID: 100100000}
  m_GameObject: {fileID: 1880779936809046}
  m_Enabled: 1
  m_EditorHideFlags: 0
  m_Script: {fileID: 11500000, guid: e1539d9bad5ac9f449d81d13b171da44, type: 3}
  m_Name: 
  m_EditorClassIdentifier: 
  m_FrameRate: 30
  m_ScreenMesh: {fileID: 23468272174370114}
  m_VRInteractiveItem: {fileID: 114856542112950072}
  m_AnimTextures:
  - {fileID: 2800000, guid: e6b8c9575d8f7a540b070de7a460046f, type: 3}
  - {fileID: 2800000, guid: 103ed0dd0eca218408c6edb8d46be84d, type: 3}
  - {fileID: 2800000, guid: fc912355ce6a7624091aba9eb6b44ca5, type: 3}
  - {fileID: 2800000, guid: 0beea174b1803d64cb262d1bfc8ebee6, type: 3}
  - {fileID: 2800000, guid: ad47475cc63f00b4fade59c6edb3c5f2, type: 3}
  - {fileID: 2800000, guid: 817d569b704b7234b99aa67d0dc96b36, type: 3}
  - {fileID: 2800000, guid: a2d9764a4821530499a92dda8acf90fa, type: 3}
  - {fileID: 2800000, guid: 22645fd0d24914b4388db0207b3cc013, type: 3}
  - {fileID: 2800000, guid: 2aa89f7844698b9409db761eee1db188, type: 3}
  - {fileID: 2800000, guid: 0abf3a0f65e3efe4bb3326f5e0179801, type: 3}
  - {fileID: 2800000, guid: ea8ca77e537741b468d8a8107e5706e8, type: 3}
  - {fileID: 2800000, guid: 080bf2c47a5fe634abd16012022fd63e, type: 3}
  - {fileID: 2800000, guid: 174d94e2be0b2d14ab68c4285c04169c, type: 3}
  - {fileID: 2800000, guid: 3215769ada76ed4438ffa6edcae898bf, type: 3}
  - {fileID: 2800000, guid: 65a4eece8dd13474eb1c4f4c89c726c0, type: 3}
  - {fileID: 2800000, guid: 117672512b5cf314bb0a50ea2f196cb2, type: 3}
  - {fileID: 2800000, guid: c36eb222016ff184d94d4f24f344e390, type: 3}
  - {fileID: 2800000, guid: 356c7d637c3bec74da85f84a40ee9c93, type: 3}
  - {fileID: 2800000, guid: cb90e92da7d726446bd4caba98e4fc49, type: 3}
  - {fileID: 2800000, guid: 79a2f911348f7254a91f3a63e3b667bc, type: 3}
  - {fileID: 2800000, guid: 0a37e7748bad5a347b34dbcc00f809e8, type: 3}
  - {fileID: 2800000, guid: 4fe85a1c549a93e4ca74f50a991a74f5, type: 3}
  - {fileID: 2800000, guid: 38a32f56061210c46a111b973260802a, type: 3}
  - {fileID: 2800000, guid: ec906accd1c1f674c8bca654e89a2787, type: 3}
  - {fileID: 2800000, guid: b8fb2bba8e53bb34199430e394879d66, type: 3}
  - {fileID: 2800000, guid: a07c120d85d0b674fbb40d285e493406, type: 3}
  - {fileID: 2800000, guid: 29ebaef9287200e44971f1400c0b128d, type: 3}
  - {fileID: 2800000, guid: 9549b1798f63f1e45be850c326d4d1bb, type: 3}
  - {fileID: 2800000, guid: f41b3ee818f597f4baa278d3244b2599, type: 3}
  - {fileID: 2800000, guid: be17fd281d8928849b478e9cd38f549b, type: 3}
  - {fileID: 2800000, guid: 99897aa1c445dfb4887fca3956e7a402, type: 3}
  - {fileID: 2800000, guid: 78128ae85de2dd249b01c9a71826bc06, type: 3}
  - {fileID: 2800000, guid: f8d18f6c227b752469cb059e7744a81c, type: 3}
  - {fileID: 2800000, guid: d86d6a5d1b93bfa409c743bb7e62caea, type: 3}
  - {fileID: 2800000, guid: f1fea3a03cd0f6c41a47a1e9db5ada3e, type: 3}
  - {fileID: 2800000, guid: 272eaa95ace72e945944ffebad6a507a, type: 3}
  - {fileID: 2800000, guid: ab88a1823313fd147aa7de60ee6533c1, type: 3}
  - {fileID: 2800000, guid: dcfb90e7e99174643a73d7c76f26d847, type: 3}
  - {fileID: 2800000, guid: c1eb653ef651d27419b6e6987c76df8d, type: 3}
  - {fileID: 2800000, guid: bce4ecb502d2f8044aaba4e373cf7d50, type: 3}
  - {fileID: 2800000, guid: 16214c4adcf837a4289ac0f1ab58fb9c, type: 3}
  - {fileID: 2800000, guid: 2169168d4a710c349bfc018e99c0d1e3, type: 3}
  - {fileID: 2800000, guid: 7b70c8289496ee4459e872bd63e7058e, type: 3}
  - {fileID: 2800000, guid: 7c36d027a44c43e418b88e9652958096, type: 3}
  - {fileID: 2800000, guid: 7fd3c91b11d96cb438e8af53d0b87d88, type: 3}
  - {fileID: 2800000, guid: 33b20e2b39099a44298c1358402f858c, type: 3}
  - {fileID: 2800000, guid: d815adcc9e97a504fb4f3bfed4f1db6d, type: 3}
  - {fileID: 2800000, guid: e1b32e6567ae21d4d81b938568e2bb42, type: 3}
  - {fileID: 2800000, guid: 4f49bedcb5ac561428c4e99206e1a048, type: 3}
  - {fileID: 2800000, guid: 95bd5bfb501357349b238434e1ff644d, type: 3}
  - {fileID: 2800000, guid: c23b36090c5b7c94e9778c0b90b3943b, type: 3}
  - {fileID: 2800000, guid: ea025386904c91943b39798e4ffc7fa2, type: 3}
  - {fileID: 2800000, guid: de9c82d37f04f9b428278304b3bc55aa, type: 3}
  - {fileID: 2800000, guid: 1a6428a913e538e419cf1a5329377272, type: 3}
  - {fileID: 2800000, guid: 0247cbd784271034d80d5c574244865e, type: 3}
  - {fileID: 2800000, guid: 75b19678cb223f74187fa565f3c43baa, type: 3}
  - {fileID: 2800000, guid: 070e04eff2d789544b439db80671153d, type: 3}
  - {fileID: 2800000, guid: 4e1fbc173c9f19347a3276cf75a15685, type: 3}
  - {fileID: 2800000, guid: 79866de67515cc14a9129735f008ff7c, type: 3}
  - {fileID: 2800000, guid: 276f8da17a5091445875ceefaf5fb0c0, type: 3}
  - {fileID: 2800000, guid: 9a12e956003609d4bbe918d7622eef39, type: 3}
  - {fileID: 2800000, guid: f6afe05719fd148478319e3534d4c2a9, type: 3}
  - {fileID: 2800000, guid: 93842b90bec6c7b428e1f6f7e8815083, type: 3}
  - {fileID: 2800000, guid: 8329ecd6ad8bf6742b34499869b4d1ab, type: 3}
  - {fileID: 2800000, guid: 9e8555cc625bd824d9c2acdbb517a755, type: 3}
  - {fileID: 2800000, guid: 9a7527e71a46295458fffb3197dbc7a9, type: 3}
  - {fileID: 2800000, guid: d8bedcd7bf3707c43beb9be9a07ac916, type: 3}
  - {fileID: 2800000, guid: 3939fcf5b0c22a647bb1b60342257606, type: 3}
  - {fileID: 2800000, guid: e0de51d35f749c94c807a42c769420c9, type: 3}
  - {fileID: 2800000, guid: 30baf02e296681549933646fede187e0, type: 3}
  - {fileID: 2800000, guid: 566b67f769c045349bf609e56a0ad55a, type: 3}
  - {fileID: 2800000, guid: ed29c32fe557a7747a2c72d968af1e1c, type: 3}
  - {fileID: 2800000, guid: aa52f4477e364344cb74be5893f62407, type: 3}
  - {fileID: 2800000, guid: fad453b8fa688a141b7d3591f171a483, type: 3}
  - {fileID: 2800000, guid: 1ce769aed5c1807418ec86b63cd83852, type: 3}
  - {fileID: 2800000, guid: 1e40bcdaf2333de4790f2f3107d1821c, type: 3}
--- !u!114 &114652354481748450
MonoBehaviour:
  m_ObjectHideFlags: 1
  m_PrefabParentObject: {fileID: 0}
  m_PrefabInternal: {fileID: 100100000}
  m_GameObject: {fileID: 1669484346730672}
  m_Enabled: 1
  m_EditorHideFlags: 0
  m_Script: {fileID: 11500000, guid: e1539d9bad5ac9f449d81d13b171da44, type: 3}
  m_Name: 
  m_EditorClassIdentifier: 
  m_FrameRate: 30
  m_ScreenMesh: {fileID: 23224478582632834}
  m_VRInteractiveItem: {fileID: 114395030954941530}
  m_AnimTextures:
  - {fileID: 2800000, guid: 7b9c585882f820b4082047e90a137562, type: 3}
  - {fileID: 2800000, guid: ed0e9cb8587ee9447b89630a9fe84047, type: 3}
  - {fileID: 2800000, guid: dc4d1f62feb06a445bcf1f305862f6bb, type: 3}
  - {fileID: 2800000, guid: 234249532ee735e4297de2642ede4890, type: 3}
  - {fileID: 2800000, guid: 4c064b681a454074592607f982a5c4c7, type: 3}
  - {fileID: 2800000, guid: 8b9a661aedcfb934bbb36dec627706cc, type: 3}
  - {fileID: 2800000, guid: 6070f86fc80d78c4cade3657996be90a, type: 3}
  - {fileID: 2800000, guid: 713a3603f561b5f44b632bb6d74a6583, type: 3}
  - {fileID: 2800000, guid: c31254a8e2b8d3b4eb9b74119e2c7db5, type: 3}
  - {fileID: 2800000, guid: d968ded408497024f9953962544a322f, type: 3}
  - {fileID: 2800000, guid: a0dd8c25ad703394b804c0f5ad58c128, type: 3}
  - {fileID: 2800000, guid: c0c6ae8c7f87c2048ae47a964e7e66cb, type: 3}
  - {fileID: 2800000, guid: d5ac961ae64a25c4ab2333ecf738a93d, type: 3}
  - {fileID: 2800000, guid: 18af85f4f68f91844821a6b0aad3935f, type: 3}
  - {fileID: 2800000, guid: 62c673aa9c56ba14f93dfbd26e754b62, type: 3}
  - {fileID: 2800000, guid: 11dac28109f469348ba53dec55bef4bd, type: 3}
  - {fileID: 2800000, guid: c6988e83b2263f44bb17332517a8a74f, type: 3}
  - {fileID: 2800000, guid: 9be6ba2f56d868849a726a44bec5cd5d, type: 3}
  - {fileID: 2800000, guid: f1597df362238a54fb90ab9d861d4cf3, type: 3}
  - {fileID: 2800000, guid: 9c8e6211105df49448806b01927bb5de, type: 3}
  - {fileID: 2800000, guid: ef756fa173ab40f4abaaf56cbc76b0ad, type: 3}
  - {fileID: 2800000, guid: fdf93da29b7d24b44ae583d671c677cb, type: 3}
  - {fileID: 2800000, guid: f6d7d8e342d7b74438bc5b6e941d6441, type: 3}
  - {fileID: 2800000, guid: b68311842a1102c4abd126742153a902, type: 3}
  - {fileID: 2800000, guid: dbd1a09432b3bff4494eb08b6e95519a, type: 3}
  - {fileID: 2800000, guid: e83fe872b905f954f8d8d7a2cda82699, type: 3}
  - {fileID: 2800000, guid: 12ea665558011694b994ea9778a4e6ea, type: 3}
  - {fileID: 2800000, guid: 295c5127da2807c4ba315077eb26b331, type: 3}
  - {fileID: 2800000, guid: 2f2fd37be1ea70e46a1fe4932183ee63, type: 3}
  - {fileID: 2800000, guid: 5a238dc1f9ab41743a5b4d16952dc9c5, type: 3}
  - {fileID: 2800000, guid: 27fffb4918129ff4b9e255aca56357a4, type: 3}
  - {fileID: 2800000, guid: dc5e50c86cef9094c8cfaaae7d082ddb, type: 3}
  - {fileID: 2800000, guid: e0e0b33ef445c124db32974e60024592, type: 3}
  - {fileID: 2800000, guid: 47e27a9da6ce36f43b0d4a3e27d0ddf9, type: 3}
  - {fileID: 2800000, guid: b7149b91f5ebb2d44b0451f3f2428a8c, type: 3}
  - {fileID: 2800000, guid: c57753bf981950c4ab420312b662bc20, type: 3}
  - {fileID: 2800000, guid: 730d5886b8296c84eb7621be492dabc9, type: 3}
  - {fileID: 2800000, guid: b43446a8852742d42b5944ffc65073ff, type: 3}
  - {fileID: 2800000, guid: 020ac0b1684eaaf459c4531795c70d47, type: 3}
  - {fileID: 2800000, guid: 3a6e604865c001345b23ce24816bedd7, type: 3}
  - {fileID: 2800000, guid: aafb8427e69f1de4682c7b51fe175b36, type: 3}
  - {fileID: 2800000, guid: 24ab58fa19bcb6d4cab9c646d46c75b0, type: 3}
  - {fileID: 2800000, guid: fd081d8373e9cef4b802322e2cc597c2, type: 3}
  - {fileID: 2800000, guid: 09faf5dab9f2ff740bbc38b3daea7d0e, type: 3}
  - {fileID: 2800000, guid: c86d5d29600705d4c8200d3fae0e998c, type: 3}
  - {fileID: 2800000, guid: 4e5d81f8a3b8d744ba100e1323456da4, type: 3}
  - {fileID: 2800000, guid: 57bb16a0f415bd44bb90fbc15993099d, type: 3}
  - {fileID: 2800000, guid: 40796b567ea504845a07c20c47421b97, type: 3}
  - {fileID: 2800000, guid: 263e077e3fe3ba846a57c14ebeeec596, type: 3}
  - {fileID: 2800000, guid: b26f79003dea0844d87a072d3b3002cf, type: 3}
  - {fileID: 2800000, guid: 97dcdb820a187e4459b061e5aaa577fb, type: 3}
--- !u!114 &114743697013859576
MonoBehaviour:
  m_ObjectHideFlags: 1
  m_PrefabParentObject: {fileID: 0}
  m_PrefabInternal: {fileID: 100100000}
  m_GameObject: {fileID: 1669484346730672}
  m_Enabled: 1
  m_EditorHideFlags: 0
  m_Script: {fileID: 11500000, guid: 3138a0d76dfdea846a0a250e0c262f75, type: 3}
  m_Name: 
  m_EditorClassIdentifier: 
  m_Duration: 2
  m_Audio: {fileID: 82849527156809740}
  m_OnOverClip: {fileID: 8300000, guid: 2bd66143af0efeb4e884e4273d2ed956, type: 3}
  m_OnFilledClip: {fileID: 8300000, guid: 9f9d2c4dc4b50704bbf83a0e84e35936, type: 3}
  m_Slider: {fileID: 0}
  m_InteractiveItem: {fileID: 114395030954941530}
  m_VRInput: {fileID: 0}
  m_BarCanvas: {fileID: 0}
  m_Renderer: {fileID: 0}
  m_SelectionRadial: {fileID: 0}
  m_UIFader: {fileID: 0}
  m_Collider: {fileID: 0}
  m_DisableOnBarFill: 1
  m_DisappearOnBarFill: 0
--- !u!114 &114783752679363942
MonoBehaviour:
  m_ObjectHideFlags: 1
  m_PrefabParentObject: {fileID: 0}
  m_PrefabInternal: {fileID: 100100000}
  m_GameObject: {fileID: 1694122199457714}
  m_Enabled: 1
  m_EditorHideFlags: 0
  m_Script: {fileID: 11500000, guid: 3138a0d76dfdea846a0a250e0c262f75, type: 3}
  m_Name: 
  m_EditorClassIdentifier: 
  m_Duration: 2
  m_Audio: {fileID: 82011938361195008}
  m_OnOverClip: {fileID: 8300000, guid: 2bd66143af0efeb4e884e4273d2ed956, type: 3}
  m_OnFilledClip: {fileID: 8300000, guid: 9f9d2c4dc4b50704bbf83a0e84e35936, type: 3}
  m_Slider: {fileID: 0}
  m_InteractiveItem: {fileID: 114134277314070928}
  m_VRInput: {fileID: 0}
  m_BarCanvas: {fileID: 0}
  m_Renderer: {fileID: 0}
  m_SelectionRadial: {fileID: 0}
  m_UIFader: {fileID: 0}
  m_Collider: {fileID: 0}
  m_DisableOnBarFill: 1
  m_DisappearOnBarFill: 0
--- !u!114 &114847988582809614
MonoBehaviour:
  m_ObjectHideFlags: 1
  m_PrefabParentObject: {fileID: 0}
  m_PrefabInternal: {fileID: 100100000}
  m_GameObject: {fileID: 1694122199457714}
  m_Enabled: 1
  m_EditorHideFlags: 0
  m_Script: {fileID: 11500000, guid: 0742577183eb7964686ad45f844edd4e, type: 3}
  m_Name: 
  m_EditorClassIdentifier: 
  m_SceneToLoad: Shooter360
  m_CameraFade: {fileID: 0}
  m_SelectionRadial: {fileID: 0}
  m_InteractiveItem: {fileID: 114134277314070928}
--- !u!114 &114856542112950072
MonoBehaviour:
  m_ObjectHideFlags: 1
  m_PrefabParentObject: {fileID: 0}
  m_PrefabInternal: {fileID: 100100000}
  m_GameObject: {fileID: 1880779936809046}
  m_Enabled: 1
  m_EditorHideFlags: 0
  m_Script: {fileID: 11500000, guid: 7fea6f8eea666334aaf9869ad8f7bcda, type: 3}
  m_Name: 
  m_EditorClassIdentifier: 
--- !u!114 &114879085630848490
MonoBehaviour:
  m_ObjectHideFlags: 1
  m_PrefabParentObject: {fileID: 0}
  m_PrefabInternal: {fileID: 100100000}
  m_GameObject: {fileID: 1880779936809046}
  m_Enabled: 1
  m_EditorHideFlags: 0
  m_Script: {fileID: 11500000, guid: 3138a0d76dfdea846a0a250e0c262f75, type: 3}
  m_Name: 
  m_EditorClassIdentifier: 
  m_Duration: 2
  m_Audio: {fileID: 82294788354870952}
  m_OnOverClip: {fileID: 8300000, guid: 2bd66143af0efeb4e884e4273d2ed956, type: 3}
  m_OnFilledClip: {fileID: 8300000, guid: 9f9d2c4dc4b50704bbf83a0e84e35936, type: 3}
  m_Slider: {fileID: 0}
  m_InteractiveItem: {fileID: 114856542112950072}
  m_VRInput: {fileID: 0}
  m_BarCanvas: {fileID: 0}
  m_Renderer: {fileID: 0}
  m_SelectionRadial: {fileID: 0}
  m_UIFader: {fileID: 0}
  m_Collider: {fileID: 0}
  m_DisableOnBarFill: 1
  m_DisappearOnBarFill: 0
--- !u!114 &114916633167737682
MonoBehaviour:
  m_ObjectHideFlags: 1
  m_PrefabParentObject: {fileID: 0}
  m_PrefabInternal: {fileID: 100100000}
  m_GameObject: {fileID: 1570323619662310}
  m_Enabled: 1
  m_EditorHideFlags: 0
  m_Script: {fileID: 11500000, guid: 0f515153fbae26345b4924caf8afa909, type: 3}
  m_Name: 
  m_EditorClassIdentifier: 
  m_Transform: {fileID: 4130269019980442}
  m_Item: {fileID: 114050414913043912}
  m_PopSpeed: 2.5
  m_PopDistance: 0.65
--- !u!114 &114918220517161140
MonoBehaviour:
  m_ObjectHideFlags: 1
  m_PrefabParentObject: {fileID: 0}
  m_PrefabInternal: {fileID: 100100000}
  m_GameObject: {fileID: 1880779936809046}
  m_Enabled: 1
  m_EditorHideFlags: 0
  m_Script: {fileID: 11500000, guid: 0f515153fbae26345b4924caf8afa909, type: 3}
  m_Name: 
  m_EditorClassIdentifier: 
  m_Transform: {fileID: 4577806935100480}
  m_Item: {fileID: 114856542112950072}
  m_PopSpeed: 8
  m_PopDistance: 0.5
